{"content":[{"id":148,"title":"Cloud Security  Wiz","company":"Talent Worx","location":"India","applyUrl":"https://www.adzuna.in/details/5100471316?utm_medium=api&utm_source=9aabcae5","postedDate":"2025-03-19","jobType":"Intern"},{"id":147,"title":"Assistant Manager - HR (Advertising Agency- startup)","company":"E4 HR Associates","location":"India","applyUrl":"https://www.adzuna.in/details/5236377136?utm_medium=api&utm_source=9aabcae5","postedDate":"2025-06-06","jobType":"permanent"},{"id":146,"title":"Regional Strategic Sales Lead (North)","company":"Talent Steer Partners","location":"India","applyUrl":"https://www.adzuna.in/details/5269685021?utm_medium=api&utm_source=9aabcae5","postedDate":"2025-06-26","jobType":"permanent"},{"id":145,"title":"Workday HCM","company":"Trigent Software Private Limited","location":"India","applyUrl":"https://www.adzuna.in/details/5397005524?utm_medium=api&utm_source=9aabcae5","postedDate":"2025-09-13","jobType":null},{"id":144,"title":"Design Verification Engineer - 30607","company":"Zigsaw","location":"Bangalore, Karnataka","applyUrl":"https://www.adzuna.in/details/5236374481?utm_medium=api&utm_source=9aabcae5","postedDate":"2025-06-06","jobType":"permanent"},{"id":143,"title":"Regional Medical Advisor","company":"Dr Reddy's Laboratories Limited","location":"Kolkata, West Bengal","applyUrl":"https://www.adzuna.in/details/5378426144?utm_medium=api&utm_source=9aabcae5","postedDate":"2025-09-02","jobType":null},{"id":142,"title":"Middleware Administrator Expert","company":"Landmark Group","location":"Rameshnagar, Bangalore","applyUrl":"https://www.adzuna.in/details/5062067526?utm_medium=api&utm_source=9aabcae5","postedDate":"2025-02-24","jobType":null},{"id":141,"title":"Record To Report","company":"Talent Worx","location":"India","applyUrl":"https://www.adzuna.in/details/5256249935?utm_medium=api&utm_source=9aabcae5","postedDate":"2025-06-18","jobType":"contract"},{"id":140,"title":"Lead Technical Support Analyst","company":"staffhire","location":"Bangalore, Karnataka","applyUrl":"https://www.adzuna.in/details/5236367428?utm_medium=api&utm_source=9aabcae5","postedDate":"2025-06-06","jobType":"permanent"},{"id":139,"title":"Principal Engineer","company":"Careernet Technologies Pvt Ltd","location":"Bangalore, Karnataka","applyUrl":"https://www.adzuna.in/details/5236372895?utm_medium=api&utm_source=9aabcae5","postedDate":"2025-06-06","jobType":"permanent"}],"pageable":{"pageNumber":0,"pageSize":10,"sort":{"empty":false,"sorted":true,"unsorted":false},"offset":0,"paged":true,"unpaged":false},"last":false,"totalElements":148,"totalPages":15,"size":10,"number":0,"sort":{"empty":false,"sorted":true,"unsorted":false},"first":true,"numberOfElements":10,"empty":false}